<?xml version="1.0" encoding="UTF-8" standalone="no"?>
<svg
   height="36"
   id="andGate"
   label="AND Gate"
   version="1.1"
   width="36"
   sodipodi:docname="and_gate.inkscape.svg"
   inkscape:version="1.2.2 (b0a8486541, 2022-12-01)"
   xmlns:inkscape="http://www.inkscape.org/namespaces/inkscape"
   xmlns:sodipodi="http://sodipodi.sourceforge.net/DTD/sodipodi-0.dtd"
   xmlns="http://www.w3.org/2000/svg"
   xmlns:svg="http://www.w3.org/2000/svg">
  <defs
     id="defs9" />
  <sodipodi:namedview
     id="namedview7"
     pagecolor="#505050"
     bordercolor="#ffffff"
     borderopacity="1"
     inkscape:showpageshadow="0"
     inkscape:pageopacity="0"
     inkscape:pagecheckerboard="1"
     inkscape:deskcolor="#505050"
     showgrid="false"
     inkscape:zoom="6.5555556"
     inkscape:cx="-9.6864407"
     inkscape:cy="18"
     inkscape:window-width="1920"
     inkscape:window-height="1153"
     inkscape:window-x="0"
     inkscape:window-y="0"
     inkscape:window-maximized="1"
     inkscape:current-layer="andGate" />
  <g
     id="g4"
     transform="matrix(1.0404624,0,0,1.0404624,-0.20809217,-0.2080925)">
    <path
       d="M 0.7,34.3 H 34.3 V 21 C 34.3,21 34.3,0.7 17.5,0.7 0.7,0.7 0.7,21 0.7,21 Z"
       style="fill:none;stroke:#000000;stroke-width:1"
       id="path2" />
  </g>
</svg>
