<?xml version="1.0" encoding="UTF-8" standalone="no"?>
<svg
   height="36"
   id="intermediateEvent"
   label="Intermediate Event"
   version="1.1"
   width="36"
   sodipodi:docname="intermediate_event.inkscape.svg"
   inkscape:version="1.2.2 (b0a8486541, 2022-12-01)"
   xmlns:inkscape="http://www.inkscape.org/namespaces/inkscape"
   xmlns:sodipodi="http://sodipodi.sourceforge.net/DTD/sodipodi-0.dtd"
   xmlns="http://www.w3.org/2000/svg"
   xmlns:svg="http://www.w3.org/2000/svg">
  <defs
     id="defs9" />
  <sodipodi:namedview
     id="namedview7"
     pagecolor="#505050"
     bordercolor="#ffffff"
     borderopacity="1"
     inkscape:showpageshadow="0"
     inkscape:pageopacity="0"
     inkscape:pagecheckerboard="1"
     inkscape:deskcolor="#505050"
     showgrid="false"
     inkscape:zoom="6.5555556"
     inkscape:cx="-9.6864407"
     inkscape:cy="18"
     inkscape:window-width="1920"
     inkscape:window-height="1153"
     inkscape:window-x="0"
     inkscape:window-y="0"
     inkscape:window-maximized="1"
     inkscape:current-layer="intermediateEvent" />
  <g
     id="g4"
     transform="matrix(1.0404625,0,0,1.0404625,-0.20809249,-0.20809249)">
    <rect
       height="33.599998"
       style="fill:none;stroke:#000000;stroke-width:1"
       width="33.599998"
       x="0.69999999"
       y="0.69999999"
       id="rect2" />
  </g>
</svg>
