<?xml version="1.0" encoding="UTF-8" standalone="no"?>
<svg
   height="36"
   id="xorGate"
   label="XOR Gate"
   version="1.1"
   width="36"
   sodipodi:docname="xor_gate.inkscape.svg"
   inkscape:version="1.2.2 (b0a8486541, 2022-12-01)"
   xmlns:inkscape="http://www.inkscape.org/namespaces/inkscape"
   xmlns:sodipodi="http://sodipodi.sourceforge.net/DTD/sodipodi-0.dtd"
   xmlns="http://www.w3.org/2000/svg"
   xmlns:svg="http://www.w3.org/2000/svg">
  <defs
     id="defs11" />
  <sodipodi:namedview
     id="namedview9"
     pagecolor="#505050"
     bordercolor="#ffffff"
     borderopacity="1"
     inkscape:showpageshadow="0"
     inkscape:pageopacity="0"
     inkscape:pagecheckerboard="1"
     inkscape:deskcolor="#505050"
     showgrid="false"
     inkscape:zoom="21.105575"
     inkscape:cx="15.375084"
     inkscape:cy="28.854935"
     inkscape:window-width="1920"
     inkscape:window-height="1153"
     inkscape:window-x="0"
     inkscape:window-y="0"
     inkscape:window-maximized="1"
     inkscape:current-layer="xorGate" />
  <g
     id="g6"
     transform="matrix(1.0406968,0,0,1.0279435,-0.21195811,-0.11638289)">
    <path
       d="M 0.7,34.3 C 12.6,28 22.4,28 34.3,34.3 34.3,21 28,7 17.5,0.7 7,7 0.7,21 0.7,34.3 Z"
       style="fill:none;stroke:#000000;stroke-width:1"
       id="path2" />
    <path
       d="M 0.7,34.3 17.5,1.4 34.3,34.3"
       style="fill-opacity:0;stroke:#000000;stroke-width:1"
       id="path4" />
  </g>
</svg>
